CalculationMode = gs
ExperimentalFeatures = yes
FromScratch = yes

PeriodicDimensions = 2

BoxShape = parallelepiped
a = 4.65099393883

Spacing= a/10

LL = 10

%LatticeParameters
  a | a | 2*LL
%


%LatticeVectors
1    | 0         | 0.
-1/2 | sqrt(3)/2 | 0.
0.   | 0.        | 1.
%


%ReducedCoordinates
'C' |  0.  |    0. |   0.
'C' |  1/3 |   2/3 |   0.
%

ExtraStates = 2

SmearingFunction = fermi_dirac
Smearing = 0.001

ConvAbsEv = 1e-5


%KPointsReduced
 1.0  |    0.000000 |   0.000000 |   0.000000
 1.0  |    0.000000 |   0.200000 |   0.000000
 1.0  |    0.000000 |  -0.200000 |   0.000000
 1.0  |    0.200000 |   0.000000 |   0.000000
 1.0  |   -0.200000 |   0.000000 |   0.000000
 1.0  |    0.200000 |   0.200000 |   0.000000
 1.0  |    0.200000 |  -0.200000 |   0.000000
 1.0  |   -0.200000 |   0.200000 |   0.000000
 1.0  |   -0.200000 |  -0.200000 |   0.000000
 1.0  |    0.000000 |   0.400000 |   0.000000
 1.0  |    0.000000 |  -0.400000 |   0.000000
 1.0  |    0.400000 |   0.000000 |   0.000000
 1.0  |   -0.400000 |   0.000000 |   0.000000
 1.0  |    0.200000 |   0.400000 |   0.000000
 1.0  |    0.200000 |  -0.400000 |   0.000000
 1.0  |    0.400000 |   0.200000 |   0.000000
 1.0  |    0.400000 |  -0.200000 |   0.000000
 1.0  |   -0.400000 |   0.200000 |   0.000000
 1.0  |   -0.400000 |  -0.200000 |   0.000000
 1.0  |   -0.200000 |   0.400000 |   0.000000
 1.0  |   -0.200000 |  -0.400000 |   0.000000
 1.0  |    0.400000 |   0.400000 |   0.000000
 1.0  |    0.400000 |  -0.400000 |   0.000000
 1.0  |   -0.400000 |   0.400000 |   0.000000
 1.0  |   -0.400000 |  -0.400000 |   0.000000
0.000000 | 0.000000 | 0.000000 | 0.000000
0.000000 | 0.041667 | 0.041667 | 0.000000
0.000000 | 0.083333 | 0.083333 | 0.000000
0.000000 | 0.125000 | 0.125000 | 0.000000
0.000000 | 0.166667 | 0.166667 | 0.000000
0.000000 | 0.208333 | 0.208333 | 0.000000
0.000000 | 0.250000 | 0.250000 | 0.000000
0.000000 | 0.291667 | 0.291667 | 0.000000
0.000000 | 0.333333 | 0.333333 | 0.000000
0.000000 | 0.333333 | 0.333333 | 0.000000
0.000000 | 0.277778 | 0.361111 | 0.000000
0.000000 | 0.222222 | 0.388889 | 0.000000
0.000000 | 0.166667 | 0.416667 | 0.000000
0.000000 | 0.111111 | 0.444444 | 0.000000
0.000000 | 0.055556 | 0.472222 | 0.000000
0.000000 | 0.000000 | 0.500000 | 0.000000
0.000000 | 0.000000 | 0.500000 | 0.000000
0.000000 | 0.000000 | 0.444444 | 0.000000
0.000000 | 0.000000 | 0.388889 | 0.000000
0.000000 | 0.000000 | 0.333333 | 0.000000
0.000000 | 0.000000 | 0.277778 | 0.000000
0.000000 | 0.000000 | 0.222222 | 0.000000
0.000000 | 0.000000 | 0.166667 | 0.000000
0.000000 | 0.000000 | 0.111111 | 0.000000
0.000000 | 0.000000 | 0.055556 | 0.000000
%
StatesPack = yes
LCAOStart = lcao_full

